[gd_scene load_steps=9 format=2]

[ext_resource path="res://ChristmasBall.gd" type="Script" id=1]
[ext_resource path="res://assets/ball3.png" type="Texture" id=2]
[ext_resource path="res://assets/ball4.png" type="Texture" id=3]
[ext_resource path="res://assets/ball5.png" type="Texture" id=4]
[ext_resource path="res://assets/ball6.png" type="Texture" id=5]

[sub_resource type="PhysicsMaterial" id=1]
bounce = 100.0

[sub_resource type="SpriteFrames" id=3]
animations = [ {
"frames": [ ExtResource( 2 ), ExtResource( 3 ), ExtResource( 4 ), ExtResource( 5 ) ],
"loop": true,
"name": "default",
"speed": 5.0
} ]

[sub_resource type="CircleShape2D" id=2]
radius = 40.0

[node name="ChristmasBall" type="RigidBody2D" groups=[
"christmas_ball",
]]
collision_layer = 4
collision_mask = 6
physics_material_override = SubResource( 1 )
contacts_reported = 10
contact_monitor = true
can_sleep = false
script = ExtResource( 1 )

[node name="AnimatedSprite" type="AnimatedSprite" parent="."]
frames = SubResource( 3 )
frame = 1

[node name="CollisionShape2D" type="CollisionShape2D" parent="."]
shape = SubResource( 2 )
[connection signal="body_entered" from="." to="." method="_on_ChristmasBall_body_entered"]
