[gd_scene load_steps=3 format=2]

[ext_resource path="res://assets/candy_cane.png" type="Texture" id=1]

[sub_resource type="CircleShape2D" id=1]
radius = 50.9902

[node name="Player" type="StaticBody2D"]

[node name="player2" type="Sprite" parent="."]
texture = ExtResource( 1 )

[node name="CollisionShape2D" type="CollisionShape2D" parent="."]
shape = SubResource( 1 )
